Chapter 6 Interactions raster-vecteur | Geocomputation avec R
…
L’extrait de code précédent a utilisé le tidyverse pour fournir des statistiques sommaires pour les valeurs des cellules par ID de polygone, comme décrit dans le chapitre 3.
Les résultats fournissent des résumés utiles, par exemple que la hauteur maximale dans le parc est d’environ 2 661 mètres au-dessus du niveau de la mer (d’autres statistiques sommaires, comme l’écart-type, peuvent également être calculées de cette manière).
Étant donné qu’il n’y a qu’un seul polygone dans l’exemple, un tableau de données avec une seule ligne est renvoyé ; cependant, la méthode fonctionne lorsque plusieurs polygones sélecteurs sont utilisés.

La même approche fonctionne pour compter les occurrences de valeurs raster catégorielles dans les polygones.
Ceci est illustré avec un jeu de données de couverture du sol (nlcd) du paquet spDataLarge dans la Figure 6.4(B), et démontré dans le code ci-dessous :

nlcd = rast(system.file("raster/nlcd.tif", package = "spDataLarge"))
zion2 = st_transform(zion, st_crs(nlcd))
zion_nlcd = terra::extract(nlcd, vect(zion2))
zion_nlcd %>% 
  group_by(ID, levels) %>%
  count()
#> # A tibble: 7 × 3
#> # Groups:   ID, levels [7]
#>      ID levels         n
#>   <dbl> <fct>      <int>
#> 1     1 Developed   4205
#> 2     1 Barren     98285
#> 3     1 Forest    298299
#> 4     1 Shrubland 203701
#> # … with 3 more rows
…
