…
La même approche fonctionne pour compter les occurrences de valeurs raster catégorielles dans les polygones.
Ceci est illustré avec un jeu de données de couverture du sol (`nlcd`) du paquet **spDataLarge** dans la Figure \@ref(fig:polyextr)(B), et démontré dans le code ci-dessous :


```r
nlcd = rast(system.file("raster/nlcd.tif", package = "spDataLarge"))
zion2 = st_transform(zion, st_crs(nlcd))
zion_nlcd = terra::extract(nlcd, zion2)
zion_nlcd |>
  group_by(ID, levels) |>
  count()
#> # A tibble: 7 × 3
#> # Groups:   ID, levels [7]
#>      ID levels         n
#>   <dbl> <fct>      <int>
#> 1     1 Developed   4205
#> 2     1 Barren     98285
#> 3     1 Forest    298299
#> 4     1 Shrubland 203701
#> # … with 3 more rows
```
…
